[{"Year":"1970","Actress":"Glenda Jackson","Movie":"Women in Love"},
{"Year":"1971","Actress":"Jane Fonda","Movie":"Klute"},
{"Year":"1972","Actress":"Liza Minnelli","Movie":"Cabaret"},
{"Year":"1973","Actress":"Glenda Jackson","Movie":"A Touch of Class"},
{"Year":"1974","Actress":"Ellen Burstyn","Movie":"Alice Doesn't Live Here Anymore"},
{"Year":"1975","Actress":"Louise Fletcher","Movie":"One Flew over the Cuckoo's Nest"},
{"Year":"1976","Actress":"Faye Dunaway","Movie":"Network"},
{"Year":"1977","Actress":"Dianne Keaton","Movie":"Annie Hall"},
{"Year":"1978","Actress":"Jane Fonda","Movie":"Coming Home"},
{"Year":"1979","Actress":"Sally Field","Movie":"Norma Rae"},
{"Year":"1980","Actress":"Sissy Spacek","Movie":"Coal Miner's Daughter"},
{"Year":"1981","Actress":"Kathryn Hepburn","Movie":"On Golden Pond"},
{"Year":"1982","Actress":"Maryl Streep","Movie":"Sophie's Choice"},
{"Year":"1983","Actress":"Shirley MacLaine","Movie":"Terms of Endearment"},
{"Year":"1984","Actress":"Sally Field","Movie":"Places in the Heart"},
{"Year":"1985","Actress":"Geraldine Page","Movie":"A Trip to the Bountiful"},
{"Year":"1986","Actress":"Marlee Matlin","Movie":"Children of a Lesser God"},
{"Year":"1987","Actress":"Cher","Movie":"Moonstruck"},
{"Year":"1988","Actress":"Jodie Foster","Movie":"The Accused"},
{"Year":"1989","Actress":"Jessica Tandy","Movie":"Driving Miss Daisy"},
{"Year":"1990","Actress":"Kathy Bates","Movie":"Misery"},
{"Year":"1991","Actress":"Jodie Foster","Movie":"The Silence of the Lambs"},
{"Year":"1992","Actress":"Emma Thompson","Movie":"Howards End"},
{"Year":"1993","Actress":"Holly Hunter","Movie":"The Piano"},
{"Year":"1994","Actress":"Jessica Lange","Movie":"Blue Sky"},
{"Year":"1995","Actress":"Susan Sarandon","Movie":"Dead Man Walking"},
{"Year":"1996","Actress":"Frances McDormand","Movie":"Fargo"},
{"Year":"1997","Actress":"Helen Hunt","Movie":"As Good As It Gets"},
{"Year":"1998","Actress":"Gwyneth Paltrow","Movie":"Shakespeare in Love"},
{"Year":"1999","Actress":"Hilary Swank","Movie":"Boys Don't Cry"},
{"Year":"2000","Actress":"Julia Roberts","Movie":"Erin Brockovich"},
{"Year":"2001","Actress":"Halle Berry","Movie":"Monster's Ball"},
{"Year":"2002","Actress":"Nicole Kidman","Movie":"The Hours"},
{"Year":"2003","Actress":"Charlize Theron","Movie":"Monster"},
{"Year":"2004","Actress":"Hilary Swank","Movie":"Million Dollar Baby"},
{"Year":"2005","Actress":"Reese Witherspoon","Movie":"Walk the Line"},
{"Year":"2006","Actress":"Helen Mirren","Movie":"The Queen"},
{"Year":"2007","Actress":"Marion Cotillard","Movie":"La Vie en Rose"},
{"Year":"2008","Actress":"Kate Winslet","Movie":"The Reader"},
{"Year":"2009","Actress":"Sandra Bullock","Movie":"The Blind Side"},
{"Year":"2010","Actress":"Natalie Portman","Movie":"Black Swan"},
{"Year":"2011","Actress":"Meryl Streep","Movie":"The Iron Lady"},
{"Year":"2012","Actress":"Jennifer Lawrence","Movie":"Silver Linings Playbook"},
{"Year":"2013","Actress":"Cate Blanchett","Movie":"Blue Jasmine"},
{"Year":"2014","Actress":"Julianne Moore","Movie":"Still Alice"},
{"Year":"2015","Actress":"Brie Larson","Movie":"Room"},
{"Year":"2016","Actress":"Emma Stone","Movie":"La La Land"}]